763
2 6 5 6 3 3 10 9 2 6 9 9 6 6 2 4 9 8 7 7 2 4 7 2 5 7 1 9 10 4 1 10 4 7 1 3 4 6 9 7 8 3 4 2 1 1 8 2 6 10 9 10 2 3 1 9 7 9 5 3 8 6 10 7 5 2 1 5 3 8 8 9 7 8 10 5 7 9 1 7 2 10 9 6 4 2 8 10 5 8 8 8 3 2 9 9 1 9 3 2 8 6 1 8 7 2 3 5 4 6 2 6 5 4 10 8 9 9 8 6 6 3 1 3 7 1 4 10 5 1 2 10 5 4 3 8 4 1 6 3 10 1 2 8 8 3 7 1 2 5 3 9 7 9 10 4 9 4 5 4 10 6 10 1 6 2 6 10 6 2 2 6 5 1 8 10 9 5 10 2 1 8 2 3 9 4 8 10 3 9 5 10 2 9 1 8 7 8 6 8 9 2 1 5 2 7 6 3 8 9 4 5 8 7 10 2 1 5 2 8 1 7 10 1 8 2 7 2 9 8 2 2 4 3 3 8 8 10 5 8 6 6 6 7 2 3 8 10 5 1 2 3 1 2 9 8 10 4 7 3 3 10 9 5 1 6 1 6 5 4 10 7 6 3 2 1 5 7 2 5 2 4 6 8 7 6 5 6 4 1 9 5 10 2 7 6 3 9 7 2 6 9 3 2 2 9 7 9 10 2 4 5 7 5 2 6 2 3 5 2 8 9 3 1 5 2 1 2 10 10 10 9 7 6 5 9 8 1 5 9 4 3 5 2 10 8 4 6 5 4 4 2 10 10 5 4 4 5 2 10 9 9 4 7 4 7 6 7 1 2 1 1 7 9 2 9 2 9 1 3 7 1 3 3 2 1 2 6 7 6 8 10 10 4 1 3 2 8 1 2 6 5 10 1 10 8 1 7 10 7 7 9 8 5 3 10 4 5 9 7 5 1 1 4 4 2 5 4 3 6 9 4 5 5 9 10 1 1 1 6 4 6 5 5 9 2 10 7 5 7 8 4 4 4 4 10 5 1 2 10 2 8 4 9 10 9 2 5 1 2 9 10 4 7 8 5 10 2 8 9 8 1 4 1 4 3 3 8 9 10 4 5 1 3 7 8 5 7 9 8 9 3 7 1 8 7 2 9 5 2 7 5 5 7 3 7 4 7 9 8 7 1 7 6 10 2 4 5 1 10 6 4 8 2 10 4 4 3 9 1 10 5 5 5 9 1 9 1 6 2 3 1 4 6 7 8 5 2 8 3 7 1 7 2 6 1 2 4 8 6 5 6 8 8 9 5 9 3 4 10 3 8 2 6 8 10 4 3 5 5 9 1 8 2 1 9 9 2 9 5 1 7 9 7 2 8 5 4 1 9 6 6 10 8 4 9 2 5 6 6 9 2 1 4 8 10 1 7 9 9 8 6 1 7 9 6 6 3 7 4 9 6 5 6 9 10 2 7 3 4 1 2 9 10 3 2 1 2 8 10 7 2 4 1 2 6 3 1 10 6 10 2 2 10 7 8 4 2 8 10 7 5 10 9 3 10 7 7 8 5 2 4 3 1 10 6 6 3 7 5 6 6 6 4 9 3 5 9 9 5 9 10 5 3 8 5 7 9 8 5 8 8 1 10 7 1 5 10 7 2 10 4 4 3 4 1 6 7 5 5 4 7 10 6 4 10 4 6 3 1 5 1 9 3 3 5 4 1 2 6 9 8 10 
83 28 5 2 34 62 47 34 39 76 34 94 54 65 66 22 5 46 11 95 36 49 47 28 94 6 74 58 98 89 18 98 62 2 67 78 76 91 40 52 6 28 12 28 16 94 53 19 10 4 79 95 92 10 15 89 80 89 57 78 99 66 92 52 44 83 17 34 11 97 49 48 31 46 45 58 67 37 86 73 100 44 92 85 57 18 36 12 15 51 87 44 96 2 94 98 84 40 36 39 59 78 14 4 88 75 70 5 12 17 88 64 47 47 95 24 86 14 28 54 66 68 18 55 55 41 12 26 85 69 2 91 45 85 95 33 55 24 45 38 74 75 19 49 80 42 60 75 55 10 62 70 7 61 56 63 56 100 26 45 69 63 14 58 81 33 36 83 7 39 68 77 58 27 26 53 69 34 57 49 2 2 81 86 98 58 92 35 82 13 95 98 89 13 98 31 47 94 66 78 36 38 86 93 69 52 22 75 5 78 5 69 45 29 56 21 1 42 76 77 13 86 27 64 91 38 7 93 23 26 27 72 30 61 79 9 15 100 61 89 65 76 10 39 87 81 23 76 68 40 6 84 48 48 2 52 41 51 1 43 26 49 74 88 99 84 14 29 66 94 20 19 15 71 78 37 49 93 84 51 15 46 50 30 99 76 54 68 26 16 84 97 25 33 15 82 55 78 72 7 26 59 8 58 31 52 68 93 10 76 25 2 83 40 12 40 98 25 81 22 54 36 12 46 60 100 25 52 75 44 93 50 76 68 64 32 67 91 38 78 76 25 68 94 76 54 40 54 100 34 11 30 42 38 2 99 50 38 27 77 15 70 24 91 12 66 56 19 10 15 46 79 76 97 38 4 75 34 57 71 51 27 31 85 37 89 20 6 3 34 59 92 40 91 91 32 3 54 64 74 72 55 52 51 55 4 20 62 28 75 71 40 29 78 80 2 69 86 9 74 43 19 12 67 70 65 31 59 48 86 8 63 16 50 49 33 75 11 32 68 71 88 31 25 70 66 90 99 10 64 3 97 11 55 82 33 97 90 73 2 99 27 79 89 93 70 34 53 38 97 4 34 99 17 38 92 15 71 31 97 79 72 4 9 35 34 46 96 53 22 85 23 29 40 21 15 67 28 19 79 88 5 79 71 58 54 58 73 47 90 34 71 12 4 25 41 80 29 24 88 10 63 96 96 43 20 88 7 93 87 33 46 7 23 65 13 53 80 45 60 53 81 35 32 76 68 37 94 58 86 32 29 20 10 89 98 19 10 91 64 46 70 53 21 22 64 36 42 78 25 89 92 79 14 51 65 59 51 48 64 9 45 64 86 56 38 28 76 13 38 27 36 51 60 59 85 5 53 94 1 92 53 20 57 14 72 3 97 16 78 49 55 95 93 88 83 54 74 94 9 58 32 48 14 4 92 31 97 24 35 15 33 75 18 45 8 74 74 75 57 81 73 14 13 32 38 31 68 98 25 54 95 36 80 77 65 34 41 65 94 30 64 86 88 20 88 32 6 89 46 40 37 29 51 90 72 7 7 32 33 50 89 23 90 42 91 29 80 49 79 99 52 19 91 10 20 99 88 87 15 61 53 47 55 79 54 71 45 72 67 42 34 100 64 90 34 31 62 27 29 5 88 69 79 6 50 85 91 83 45 15 47 31 32 3 41 68 100 9 25 21 73 53 95 46 96 59 62 77 62 14 87 7 51 7 93 90 67 81 68 25 51 66 
10
4177
2303
2082
2162
2996
2881
6972
5941
9164
4153
