157
7 7 2 9 10 1 9 10 1 9 1 1 10 2 6 3 7 3 8 5 8 6 9 3 7 1 3 7 9 3 1 6 5 3 1 1 7 5 6 7 3 10 7 1 8 9 4 4 7 3 2 5 7 2 8 5 3 9 6 7 1 4 9 5 8 4 10 9 4 10 9 1 5 10 8 5 6 4 6 7 7 1 3 4 7 6 7 6 4 5 4 10 5 4 3 3 9 3 4 10 3 1 10 3 10 4 10 9 6 4 3 6 1 4 3 6 10 4 7 10 5 7 8 2 9 4 3 8 10 8 1 8 6 6 6 9 7 3 5 8 5 10 8 4 2 7 6 7 4 1 8 9 8 3 2 3 4 
71 2 79 53 28 92 96 33 44 16 75 88 56 20 10 80 20 88 41 61 38 41 93 67 78 93 54 57 46 99 95 94 73 99 14 8 28 81 25 16 74 54 29 26 66 69 23 15 43 3 74 21 81 86 81 5 80 67 72 65 63 55 25 51 12 64 38 92 78 48 88 46 8 89 96 86 62 7 1 9 84 2 30 34 84 41 43 30 22 59 25 93 68 52 66 94 8 34 22 15 45 97 67 28 84 11 83 58 95 2 28 84 45 12 39 68 16 19 28 83 64 31 77 5 6 77 90 49 93 7 73 45 71 68 69 93 58 20 62 10 56 48 13 11 39 20 38 39 63 87 95 15 21 74 70 25 9 
10
5648
5888
5658
9180
5909
3142
362
3871
6993
7962
