946
8 3 9 6 1 5 10 7 8 3 8 3 7 8 7 7 10 6 9 2 10 5 2 2 6 8 10 2 2 3 3 6 8 4 9 4 9 2 9 1 2 1 9 1 3 4 5 6 9 1 4 2 5 4 3 1 9 6 10 9 5 3 7 4 10 5 4 2 9 9 1 8 6 7 9 5 5 9 4 4 2 2 6 1 1 1 2 7 1 4 1 9 2 4 5 6 1 2 6 8 10 2 2 3 8 6 1 5 3 6 2 6 8 5 9 9 8 5 8 9 10 1 1 2 7 7 5 5 6 2 5 9 9 3 8 3 7 4 2 5 8 10 8 7 5 1 6 2 6 7 4 3 1 6 5 3 10 4 10 3 7 10 5 6 7 3 6 10 5 8 10 7 10 8 7 5 5 10 6 8 6 5 3 2 1 10 2 5 6 1 2 5 7 9 4 5 5 10 3 5 9 1 9 8 4 9 9 10 4 3 2 2 7 5 4 7 1 10 9 4 10 1 1 8 7 5 6 5 1 10 5 1 3 6 1 2 6 10 4 3 9 7 2 5 7 8 8 2 5 8 8 5 6 9 4 8 7 1 4 10 6 6 10 1 5 9 4 8 2 10 8 8 9 5 8 3 3 3 5 2 6 7 10 6 1 10 1 1 7 8 9 4 4 1 10 4 4 7 9 10 7 7 2 4 8 5 8 9 6 1 3 8 3 9 6 3 6 8 3 6 8 8 1 9 6 9 2 10 9 1 6 8 1 4 9 6 8 8 4 5 6 9 6 9 2 7 5 10 9 6 1 2 10 2 7 4 3 5 4 1 9 9 6 5 10 3 9 6 1 10 3 8 10 6 5 7 9 9 1 9 1 2 1 4 4 9 9 7 10 8 9 8 1 10 9 7 3 6 5 2 2 4 6 1 9 9 6 7 8 1 7 6 5 9 4 2 9 9 8 9 1 7 8 6 4 9 2 5 1 5 10 7 6 6 2 3 1 5 9 7 3 7 10 8 7 10 9 2 9 4 2 8 5 1 6 6 8 7 4 8 6 1 8 2 4 5 8 5 7 8 4 9 10 9 7 7 2 2 1 1 4 6 8 5 9 3 10 7 8 10 10 1 8 5 3 5 3 10 1 8 3 7 7 2 7 10 7 3 9 2 5 7 6 1 1 10 6 8 7 2 4 8 3 7 3 7 1 7 9 7 5 2 10 10 4 3 10 3 3 4 6 7 1 6 4 4 9 5 6 2 2 6 7 6 7 8 6 3 2 6 3 10 4 9 9 1 10 2 7 1 10 10 3 6 6 9 6 4 1 4 8 7 2 9 1 10 7 5 2 9 4 2 5 8 1 9 1 6 1 10 5 6 5 1 6 7 7 4 9 5 1 2 1 5 9 7 1 7 8 10 4 9 7 7 2 5 1 2 10 5 4 6 9 4 6 9 1 1 6 9 10 6 7 3 1 10 10 6 6 4 2 10 4 10 2 3 1 8 1 2 5 8 3 3 5 6 7 8 4 9 6 3 7 3 4 8 4 4 1 7 8 5 7 7 6 1 1 7 6 3 3 8 5 3 6 3 6 6 7 8 5 9 2 3 4 9 2 6 2 6 2 9 4 10 8 9 6 10 6 8 6 2 2 1 7 4 6 10 4 1 7 3 8 3 3 7 5 5 7 4 8 2 4 3 5 10 3 3 9 3 1 7 5 1 4 9 6 5 5 9 10 7 2 8 7 8 8 8 6 6 8 6 6 4 1 3 1 8 5 7 6 1 7 4 8 9 3 5 10 2 7 1 2 2 9 6 4 4 3 3 8 10 9 8 9 3 3 8 5 9 1 5 10 5 3 7 3 8 7 3 3 10 9 9 8 4 6 8 7 6 3 2 10 7 1 3 10 4 4 4 1 6 10 3 9 1 7 1 6 2 5 5 6 8 10 2 1 3 3 6 9 2 9 5 10 3 7 1 1 1 9 7 7 6 9 5 8 9 3 1 2 8 4 8 5 10 2 5 2 9 7 6 10 4 8 9 8 1 5 5 3 8 3 4 7 1 10 8 8 8 7 10 7 1 1 10 1 1 8 7 6 8 1 5 3 10 6 2 2 5 2 7 7 2 1 3 7 10 4 9 2 2 7 9 1 8 
14 23 67 93 64 13 59 45 99 76 100 87 76 36 76 90 86 24 30 55 14 63 66 66 60 74 22 57 15 86 98 43 67 53 43 62 33 57 9 20 35 88 65 27 65 39 15 22 6 54 54 75 81 8 80 89 54 79 85 100 56 31 52 92 61 21 85 31 37 18 84 17 56 4 20 61 11 70 57 88 86 71 38 57 89 92 88 79 3 7 11 84 60 79 23 97 11 1 34 3 45 44 94 96 92 7 79 31 76 2 50 9 16 39 5 71 50 32 7 11 4 68 99 26 81 98 97 40 61 65 55 5 100 67 44 100 80 48 25 6 46 88 79 96 78 97 43 16 3 74 58 27 32 83 53 16 78 24 72 34 44 68 13 91 22 21 94 7 97 92 33 76 3 14 50 83 62 14 12 57 5 40 52 67 41 40 5 83 29 11 50 15 36 72 82 29 48 18 16 31 37 7 54 86 14 27 23 47 72 32 6 75 24 17 66 56 16 23 82 11 90 75 63 5 23 30 86 51 12 2 56 85 23 85 38 81 84 89 69 30 90 63 91 7 58 27 51 42 66 64 36 63 3 11 78 62 74 42 18 57 55 48 74 66 36 41 64 91 44 88 98 3 8 73 30 22 97 28 12 35 96 40 72 66 15 6 36 56 76 25 47 2 84 29 57 10 85 33 95 93 9 14 85 83 59 6 60 14 25 95 93 26 17 83 34 70 98 64 58 67 8 11 57 4 26 34 33 3 60 36 15 49 61 3 84 56 42 15 51 46 1 71 32 68 94 75 33 77 22 70 98 47 48 76 6 12 86 13 3 20 23 73 17 7 39 17 81 99 54 68 42 41 34 8 17 61 93 10 9 27 9 63 18 89 97 22 6 27 74 94 88 37 57 39 55 71 93 86 38 59 24 98 63 41 45 77 32 45 19 56 41 96 32 68 64 12 69 85 49 57 84 49 61 47 95 84 99 53 13 73 92 30 72 69 6 58 97 17 18 18 43 58 92 93 14 25 7 59 8 78 47 60 75 77 17 23 41 38 96 95 69 84 52 68 20 22 7 56 46 65 93 18 65 86 62 51 3 26 44 35 77 47 69 4 97 56 96 57 67 77 87 13 46 58 97 68 85 23 77 58 84 48 54 32 67 99 9 3 2 80 56 30 87 56 71 25 75 97 92 27 47 50 47 2 79 30 92 56 98 60 82 59 11 1 88 50 96 60 75 29 92 91 19 58 78 48 1 80 26 90 2 68 92 66 6 9 88 73 70 31 73 15 46 41 63 38 63 100 95 19 34 38 54 11 49 90 42 50 97 26 7 74 56 96 33 5 52 51 66 86 28 89 40 2 1 23 52 77 14 75 22 76 17 94 6 10 3 42 24 55 53 50 55 74 54 14 10 89 79 82 8 69 25 98 4 90 63 25 25 28 80 77 69 91 9 23 49 61 73 43 90 15 79 36 66 85 93 70 84 47 25 22 21 59 52 55 92 91 13 7 82 56 39 32 40 65 93 4 33 52 79 59 13 34 29 43 29 70 43 15 95 53 12 49 46 6 36 63 92 29 63 99 31 7 95 59 29 9 42 18 24 89 85 29 19 24 76 7 31 74 36 99 50 73 9 18 50 25 16 3 67 56 32 85 19 78 50 58 81 9 84 53 60 71 43 57 67 1 82 11 99 79 92 76 81 4 55 76 77 88 4 98 81 16 11 67 21 33 81 88 60 6 5 10 92 97 84 72 18 76 42 95 84 72 22 77 31 66 77 28 47 68 53 97 75 95 36 54 21 62 95 79 70 25 40 5 75 45 1 26 37 39 86 41 53 13 5 3 99 7 33 5 25 76 63 69 29 57 73 25 86 1 35 83 68 64 39 85 21 81 74 73 58 37 25 32 21 10 79 92 38 17 60 40 74 4 41 74 16 24 16 75 69 6 38 90 48 62 65 38 38 54 79 12 59 8 92 17 9 34 34 41 38 94 100 54 17 41 5 79 48 67 37 98 15 28 30 55 34 29 2 93 69 11 82 6 97 93 87 94 31 12 36 86 8 52 70 7 74 66 11 78 81 72 42 44 21 16 50 30 64 6 78 85 93 39 43 90 86 27 4 76 83 24 86 68 64 79 91 71 69 16 9 58 86 93 
10
6502
2780
6240
3088
7382
6069
8400
2505
4307
191
