188
2 3 7 3 1 6 9 3 7 10 7 5 2 2 3 8 1 7 3 1 7 8 6 8 2 3 4 4 8 2 3 4 10 5 6 2 3 10 2 3 1 10 6 10 5 4 8 2 8 3 2 1 10 6 3 1 4 8 5 8 4 10 4 5 2 7 9 10 10 1 8 9 9 6 9 1 8 4 2 2 7 8 1 6 4 2 2 4 4 6 5 3 9 4 3 3 10 8 1 4 10 4 7 8 3 5 2 3 1 10 8 10 3 3 3 5 3 5 8 2 8 10 5 9 6 1 4 9 1 1 1 1 7 3 9 3 5 7 3 1 4 1 7 4 6 8 8 2 1 10 4 7 2 4 4 3 8 8 5 1 8 9 4 6 7 1 8 8 9 1 6 7 3 9 5 1 1 5 10 2 5 1 8 5 8 3 10 8 
64 93 8 92 51 86 33 87 99 76 6 5 91 2 20 63 93 63 69 18 60 37 8 64 81 98 25 29 63 94 89 84 13 71 48 16 20 35 95 14 96 54 8 88 85 24 95 87 77 38 27 23 8 65 66 88 14 86 41 15 16 61 27 15 63 97 32 89 55 24 46 43 84 69 59 22 92 18 73 91 56 72 100 5 31 77 65 74 45 87 26 51 67 82 25 36 84 81 88 96 26 24 85 71 18 86 74 9 80 6 17 42 13 95 98 1 4 23 59 59 42 13 11 18 75 51 1 26 92 66 28 43 16 36 85 80 56 71 65 66 71 22 59 20 93 35 31 39 13 26 91 48 84 58 24 42 81 32 1 51 84 43 76 21 5 91 81 7 25 98 28 100 68 88 2 15 90 17 17 25 83 24 51 54 4 71 51 14 
10
8146
1820
4885
519
8428
9829
8836
505
1872
4225
