536
6 7 1 2 2 3 9 10 2 6 9 5 8 1 7 8 6 5 10 10 7 7 6 5 8 2 5 3 2 10 9 4 7 3 4 6 7 7 9 8 10 8 6 10 6 8 5 6 7 7 5 4 10 7 10 8 2 4 6 1 7 4 10 1 2 8 10 3 5 6 9 2 9 5 9 1 6 7 1 8 9 8 3 2 7 4 8 8 5 9 4 6 4 1 1 5 10 4 4 3 10 10 1 2 7 3 6 7 7 9 3 2 8 8 2 1 10 7 7 7 3 10 4 6 2 5 2 5 4 2 1 5 6 6 6 5 10 5 6 4 4 6 9 7 9 9 9 4 7 9 4 8 10 4 9 9 6 9 10 9 1 6 10 8 9 6 1 6 1 4 6 9 8 9 7 2 1 9 7 10 7 6 1 5 5 1 9 9 4 4 7 6 3 4 5 3 5 1 5 10 2 5 6 10 4 7 9 10 5 3 3 5 2 1 2 6 3 7 8 2 7 9 10 8 1 4 7 4 6 7 5 8 9 3 7 9 5 1 5 4 10 10 8 5 7 9 2 9 5 7 2 2 1 9 3 9 9 3 4 7 8 6 3 8 9 2 9 10 9 7 5 9 3 7 10 10 8 4 9 2 7 4 6 8 2 4 6 5 3 3 7 4 7 2 3 5 7 7 4 4 2 6 9 10 1 3 5 5 1 2 10 7 7 8 10 9 10 3 6 6 4 1 3 8 6 5 4 2 6 2 4 8 6 8 8 2 7 9 10 5 7 9 4 5 7 4 7 3 6 2 4 6 9 2 2 9 10 9 6 4 5 6 1 5 1 9 9 9 6 5 2 9 1 5 3 1 7 3 5 5 9 9 9 2 2 7 3 3 7 4 9 7 3 6 3 2 10 4 7 6 3 7 3 9 7 1 9 6 9 8 1 8 1 7 4 9 6 5 1 3 5 1 5 5 9 5 9 4 3 3 6 9 7 4 4 9 1 10 6 2 4 9 8 2 5 9 1 10 8 6 3 6 8 5 3 3 10 2 10 10 9 3 2 9 9 7 3 4 3 10 8 6 7 4 5 5 6 10 5 2 5 2 6 10 8 5 9 2 4 4 7 8 8 8 5 4 8 1 4 5 2 1 6 9 10 10 6 3 3 6 3 6 5 2 1 1 4 1 3 6 8 8 8 4 6 9 10 8 10 3 4 8 9 8 8 2 
12 37 63 37 7 68 14 44 23 68 53 38 54 77 6 92 45 29 82 55 43 50 77 34 1 49 79 79 74 69 94 69 20 94 99 56 88 34 9 54 4 98 88 64 19 41 18 70 52 92 76 53 34 35 97 50 37 74 87 46 54 39 29 18 41 57 87 91 65 80 22 66 33 34 67 92 85 88 55 98 41 13 26 62 26 100 60 33 35 8 44 36 44 46 89 14 34 41 38 65 29 96 54 23 42 22 56 48 86 42 96 48 27 12 65 76 19 79 85 85 74 71 47 39 14 76 83 74 51 14 74 64 99 82 56 46 82 37 36 43 56 51 54 90 61 87 22 78 16 88 10 77 26 7 33 11 72 3 14 75 39 25 74 64 93 49 41 87 5 54 14 67 31 60 24 21 10 10 73 99 53 26 29 14 2 46 24 4 78 46 28 42 62 92 59 25 70 45 100 33 77 71 76 82 67 70 70 50 28 82 93 22 36 64 75 60 11 87 71 28 93 60 90 37 34 10 54 23 64 23 17 35 19 27 76 69 95 53 10 48 86 65 28 95 91 55 35 86 29 54 45 78 22 24 91 79 48 76 70 96 84 80 85 88 58 28 11 17 7 10 74 49 36 23 77 47 31 61 65 85 66 74 76 28 44 25 37 63 78 85 77 96 71 63 44 11 8 65 10 86 95 31 96 60 13 41 26 1 24 79 30 58 22 4 15 66 5 21 2 3 91 48 32 42 69 11 10 2 4 25 40 54 41 12 85 51 42 87 72 84 33 85 53 62 57 54 57 18 16 27 98 61 52 50 85 85 20 36 76 92 16 71 5 41 20 11 9 2 20 84 84 83 66 45 67 33 36 48 48 20 3 46 78 38 47 48 76 62 72 60 51 71 68 30 66 38 85 25 80 35 74 8 85 52 71 17 38 49 12 79 57 1 1 87 31 88 55 1 37 83 62 33 5 40 82 71 64 82 14 16 59 59 93 54 64 59 94 31 68 72 39 45 53 28 12 31 43 26 60 7 12 63 2 67 79 41 18 1 69 42 71 99 19 55 23 41 65 23 49 91 21 77 38 78 77 4 3 39 34 19 90 77 72 26 12 73 36 14 4 70 90 69 37 86 57 42 44 62 42 94 87 65 16 14 61 56 61 5 25 7 23 83 82 89 89 38 86 1 50 83 26 77 3 79 58 63 47 85 48 22 75 10 63 39 73 24 
10
122
9857
9334
4990
7986
9624
208
2018
5471
3508
