539
2 2 3 8 1 2 2 4 1 10 10 1 2 6 10 8 5 3 3 3 7 7 5 5 1 5 4 8 7 4 2 1 5 5 6 6 7 6 9 2 1 7 1 7 8 5 9 6 8 2 8 3 1 9 8 1 5 2 10 3 1 2 4 5 1 8 9 8 6 7 2 9 1 6 6 2 8 4 9 6 9 8 2 7 5 3 8 8 1 1 4 10 6 10 4 8 3 10 5 5 7 8 10 5 7 2 10 4 7 1 6 1 8 8 9 5 1 3 7 5 6 3 9 9 6 5 6 6 10 2 1 1 7 5 7 6 5 3 2 3 7 4 1 10 10 3 2 7 2 6 6 6 3 2 10 7 10 8 8 6 2 1 8 7 7 3 4 6 5 1 10 6 7 8 3 6 8 10 3 10 4 3 6 8 1 7 10 1 5 9 10 4 7 8 7 3 9 9 7 9 6 6 3 3 5 10 8 4 4 4 1 7 1 4 8 5 7 6 3 8 3 4 1 2 7 4 6 7 7 6 4 5 3 4 4 1 3 8 9 4 10 10 9 1 3 2 10 8 8 9 9 8 10 9 10 4 9 10 2 9 7 6 6 5 6 9 7 10 2 5 3 2 5 3 7 9 3 9 1 10 10 6 6 10 2 8 8 7 2 1 8 4 8 10 10 10 6 6 4 7 9 8 5 10 3 4 8 7 3 6 6 5 6 10 10 8 10 10 4 2 7 7 9 1 7 7 1 5 3 5 5 1 1 4 8 1 2 1 6 4 9 2 3 7 3 5 9 4 5 2 4 1 10 7 9 7 2 6 10 5 4 4 6 4 2 10 6 1 3 9 6 10 1 1 2 4 1 1 2 3 4 8 2 2 5 7 6 5 6 9 4 8 4 2 4 9 7 4 1 7 3 3 6 10 9 1 9 10 5 3 6 3 5 1 1 3 7 8 1 1 6 2 9 1 7 4 3 9 1 5 2 4 10 3 1 9 5 5 5 5 8 3 6 5 2 10 4 3 9 7 8 9 1 2 8 6 3 5 8 8 5 5 4 7 6 5 8 7 1 1 2 2 1 10 4 6 3 3 9 8 5 10 6 3 2 1 10 7 2 10 1 4 7 10 8 4 10 1 8 8 9 7 5 5 6 6 1 10 9 8 1 2 10 3 2 10 3 10 7 6 2 4 3 6 6 9 6 8 4 10 7 8 6 7 1 9 6 4 9 
17 27 92 62 7 89 2 33 58 31 71 14 5 33 20 47 70 84 12 55 43 67 17 58 36 33 71 92 82 30 66 18 53 8 21 10 71 54 21 37 91 80 5 88 25 5 31 60 19 52 30 66 58 28 100 90 22 50 98 67 87 59 30 35 100 95 26 90 6 51 83 15 74 6 77 40 99 2 62 76 33 74 54 4 12 16 36 13 83 4 66 69 76 46 81 77 100 98 32 3 17 40 67 98 4 19 25 64 41 70 2 94 100 73 23 99 40 4 52 20 9 78 24 48 12 48 96 96 22 16 44 9 16 37 79 18 74 44 65 50 32 95 82 69 33 31 57 74 24 66 75 41 73 23 55 84 85 9 67 6 90 49 10 82 80 83 83 19 97 21 3 3 14 80 75 68 25 44 32 37 78 45 93 91 16 86 75 79 84 54 98 74 1 49 45 1 72 63 32 90 9 6 91 38 82 57 81 31 67 93 37 96 93 13 24 7 16 6 3 23 84 86 47 22 47 14 21 68 50 65 69 74 73 23 93 61 19 59 97 78 64 14 36 100 22 27 31 47 79 63 47 72 10 90 49 87 58 6 34 50 23 69 42 17 51 70 31 86 16 68 67 56 1 10 1 52 87 9 6 46 58 47 64 41 9 27 78 72 59 90 61 77 35 47 38 31 22 38 61 85 11 33 16 69 28 40 74 45 3 42 30 17 83 9 86 15 12 98 30 9 59 100 97 43 86 69 58 1 50 91 47 9 5 36 1 27 7 44 58 79 98 54 21 3 22 9 3 30 99 70 3 60 56 2 27 13 63 48 92 66 73 29 21 95 99 12 99 5 59 67 52 60 6 20 77 59 4 67 50 1 78 5 25 70 13 5 6 65 35 20 18 53 59 19 3 97 71 68 50 67 7 4 71 62 63 79 36 75 79 65 20 47 47 90 41 22 47 21 48 64 85 2 45 49 45 82 15 96 91 69 86 34 84 45 100 33 80 63 59 40 71 64 63 4 25 79 20 35 22 33 27 47 58 24 68 68 90 23 19 55 74 38 16 54 49 67 56 35 48 69 48 30 42 94 97 84 52 96 70 51 100 33 21 92 7 87 25 66 81 63 51 92 28 49 48 29 4 81 15 87 27 20 37 32 76 96 48 77 28 79 86 41 81 56 42 83 48 70 72 5 73 6 86 63 66 37 68 78 84 16 99 29 90 87 97 18 64 15 81 
10
7365
2089
7563
3839
2965
4537
8054
3568
4270
9615
