328
3 7 6 5 8 9 2 6 7 2 8 4 1 5 10 8 10 3 4 5 9 5 1 8 2 5 10 7 8 5 1 9 8 1 4 9 4 4 10 7 4 10 5 4 3 6 1 3 4 1 10 6 8 10 9 4 6 1 5 10 9 5 4 10 3 2 9 9 4 4 1 9 2 7 9 5 8 5 10 9 1 5 8 2 3 8 3 6 9 10 4 5 3 2 2 2 9 1 5 5 9 10 4 9 1 3 8 10 1 8 9 6 10 3 9 8 7 1 10 6 5 8 5 1 9 4 7 5 1 2 6 6 1 1 8 7 10 7 8 6 1 4 7 1 4 9 3 8 9 9 8 7 9 9 2 10 1 2 4 9 5 5 4 9 10 10 2 2 3 1 4 2 6 6 4 9 5 9 5 1 9 5 2 6 2 7 2 7 7 1 9 9 4 2 3 4 4 2 2 1 4 10 3 4 4 3 10 4 9 5 7 7 2 4 10 4 7 8 8 5 2 5 1 6 6 4 4 3 2 8 8 1 8 6 3 2 5 7 6 6 8 8 3 9 7 10 10 9 9 5 2 1 4 10 1 9 9 10 2 8 9 10 3 3 1 2 3 10 6 3 10 10 1 3 3 9 3 9 2 9 8 7 2 8 6 10 2 9 4 6 2 7 7 8 9 1 1 6 10 2 10 7 1 8 2 8 9 9 2 2 7 4 4 10 5 4 8 8 8 4 5 10 1 7 8 7 10 9 
79 18 17 69 72 21 54 29 19 66 44 26 79 79 41 57 23 91 18 83 55 88 54 59 44 53 11 89 79 77 22 4 67 30 53 97 18 26 21 39 51 35 83 50 75 95 18 41 72 96 81 45 9 26 60 84 68 61 38 40 74 93 56 52 84 31 23 45 47 19 60 69 96 98 16 27 98 27 52 78 60 53 1 37 33 80 34 93 98 20 67 20 92 87 19 77 1 34 55 62 29 51 74 14 8 77 15 1 91 73 45 29 94 54 31 64 35 40 51 36 55 52 67 5 72 48 49 35 99 4 62 69 73 3 68 37 97 65 35 73 79 68 2 56 31 90 68 26 8 86 20 18 12 77 60 84 85 67 4 71 67 29 36 64 91 97 86 81 36 27 23 44 42 22 25 88 4 83 60 91 9 56 50 84 21 99 72 81 47 89 24 75 57 99 92 49 38 87 35 73 27 7 78 73 28 15 96 70 46 28 51 48 65 30 6 26 11 30 99 77 95 91 58 13 9 67 96 21 53 86 33 28 20 44 9 89 93 9 38 66 45 13 52 80 12 72 35 83 89 6 38 94 24 16 91 29 92 46 91 36 19 92 22 55 100 81 20 52 91 60 3 35 90 5 70 45 64 28 9 77 75 87 100 31 31 40 24 2 71 75 71 54 37 99 4 6 41 51 75 3 6 2 68 6 22 87 82 41 91 94 14 95 27 58 75 97 18 64 59 56 64 80 53 53 96 50 28 9 
10
3289
327
2126
9442
9772
1793
2054
8599
8233
957
