382
8 9 1 8 9 3 5 5 6 2 9 5 2 10 8 2 8 1 3 6 3 3 2 5 5 7 10 7 1 2 8 9 4 7 9 1 5 5 3 10 3 3 3 2 4 10 7 3 5 10 3 3 2 8 8 10 7 6 1 2 9 8 10 9 1 4 3 1 5 1 9 3 6 3 3 1 5 2 5 10 3 1 6 5 2 6 7 9 3 3 10 3 5 2 10 2 4 8 6 10 8 2 5 10 10 5 3 5 9 3 6 9 8 6 2 8 8 2 2 1 9 6 5 4 4 10 7 4 8 7 8 9 2 3 3 6 1 7 5 8 3 3 10 3 7 5 8 8 5 2 6 7 10 7 5 9 7 2 7 3 8 6 10 1 1 2 8 3 4 2 9 6 8 2 9 1 5 10 2 4 10 9 2 2 9 9 7 3 9 2 10 6 8 3 9 7 6 5 3 7 10 9 5 8 6 7 9 8 6 9 3 10 2 6 2 7 9 2 6 9 7 8 2 6 2 4 2 2 10 6 2 6 2 1 5 7 6 3 2 4 4 1 8 9 8 5 4 7 7 7 3 8 10 3 10 2 4 3 6 4 10 8 1 5 4 4 3 4 9 3 4 9 7 2 6 5 10 1 5 2 6 3 7 8 6 4 5 9 2 5 2 10 7 5 8 1 7 9 9 6 8 8 9 10 9 2 8 1 7 4 6 2 1 7 1 6 10 8 3 3 10 1 2 2 6 2 4 9 10 7 8 8 10 1 6 8 7 2 7 5 4 7 2 7 2 5 6 1 2 2 7 7 8 4 4 10 8 10 2 8 2 6 6 9 9 6 9 4 9 1 9 5 8 6 10 8 10 2 8 6 6 4 
26 61 71 11 82 8 3 30 81 60 32 59 25 31 77 64 6 69 66 28 25 19 65 97 95 87 40 11 10 74 95 34 24 35 52 21 50 43 6 81 92 71 21 43 14 88 23 53 94 13 95 4 31 32 23 6 82 72 23 100 47 11 24 20 12 32 79 97 72 88 48 18 57 89 25 13 53 97 36 4 29 21 8 15 61 95 81 88 66 26 29 80 31 69 15 35 71 70 42 51 53 84 18 43 50 56 100 90 100 57 74 52 41 77 54 19 95 51 41 87 41 71 71 61 31 53 25 29 62 66 48 86 97 84 20 53 50 37 13 18 67 19 26 1 74 87 55 1 17 72 7 2 94 86 96 26 19 84 9 83 23 20 39 90 19 67 58 17 62 89 52 26 14 4 85 2 40 9 41 71 16 31 67 59 51 99 66 75 84 68 14 81 7 11 17 62 43 65 29 62 76 39 99 3 87 27 63 27 27 21 16 69 46 16 7 20 6 41 45 66 89 91 37 86 86 62 83 96 6 63 41 33 57 53 60 42 73 62 76 12 5 42 98 35 18 25 6 76 41 3 89 92 22 77 7 70 90 7 70 70 92 64 52 86 96 74 89 55 32 12 75 75 60 48 84 30 97 96 5 64 91 16 86 3 77 5 51 97 44 44 46 35 12 77 21 35 91 10 14 85 55 23 96 37 91 1 51 53 30 55 68 89 81 41 63 59 63 38 28 8 60 8 95 29 97 85 24 85 42 25 64 7 46 55 64 64 46 95 99 99 49 52 81 21 89 95 90 13 39 58 43 100 49 7 2 13 24 14 50 91 42 11 87 47 97 65 53 48 4 55 35 17 44 45 51 79 2 62 99 46 32 100 
10
5697
8126
2213
1158
7480
321
5055
4808
847
1532
