250
8 5 10 8 8 2 5 8 8 10 5 10 10 4 3 6 7 2 2 9 6 3 3 9 2 1 4 1 10 9 8 1 5 4 3 4 2 5 1 5 9 7 1 10 10 8 6 3 9 6 2 10 8 1 10 1 2 5 9 8 2 7 4 3 5 3 5 1 6 10 1 7 8 2 2 3 2 7 10 6 10 6 10 10 7 9 8 1 5 10 2 6 1 8 8 4 2 9 7 10 5 4 4 1 5 9 8 9 7 10 2 10 7 4 7 5 2 3 2 4 8 7 9 6 8 6 3 3 8 9 6 2 4 10 4 8 6 10 7 9 6 8 2 10 6 10 5 4 2 6 9 7 1 3 7 1 6 9 1 9 8 4 3 1 9 3 6 8 5 10 1 6 4 2 3 5 6 6 4 8 3 5 10 8 10 7 3 5 1 4 6 9 5 7 8 4 1 4 5 4 6 4 4 9 10 2 7 2 10 3 6 7 8 7 6 6 4 8 2 1 1 4 9 6 4 1 7 7 10 9 7 10 8 5 1 9 9 9 1 4 9 2 9 3 2 1 5 9 8 4 
78 1 5 55 72 76 17 76 60 71 81 12 79 76 40 13 12 33 98 85 35 10 21 70 5 77 42 87 28 50 21 53 33 50 71 10 25 89 19 81 71 82 86 18 48 3 2 9 98 69 4 72 70 28 97 10 72 78 74 97 86 11 34 83 35 33 48 77 33 51 56 49 83 40 30 47 95 66 85 2 2 62 54 88 28 32 100 58 35 30 59 95 86 28 32 87 91 28 26 1 59 77 41 26 68 13 61 66 67 1 64 44 51 19 39 41 49 68 81 17 87 19 22 54 69 3 67 91 33 85 90 80 99 39 31 86 41 47 21 29 90 43 71 23 38 5 88 13 77 17 66 84 35 53 40 42 36 50 79 52 39 86 19 37 93 71 89 3 42 30 99 71 78 15 30 19 14 77 32 53 61 19 58 96 75 78 90 53 58 49 48 69 10 80 19 19 36 37 88 75 68 77 79 70 31 82 42 62 17 57 49 53 16 27 88 81 42 3 11 46 60 35 26 70 99 36 60 24 42 21 37 88 31 86 56 8 15 53 51 72 92 26 49 64 23 94 21 32 28 76 
10
3699
9209
926
6272
1563
3003
1255
3142
8632
6657
