475
2 5 9 9 3 1 4 4 7 3 10 2 10 8 3 5 7 4 2 10 4 10 1 9 4 1 2 9 7 9 9 1 4 7 1 8 4 10 4 8 6 8 8 3 8 1 4 8 7 10 7 9 10 2 8 2 8 4 4 7 7 1 9 6 4 3 1 9 7 4 8 2 4 5 6 10 6 9 2 5 7 1 9 9 8 10 8 7 9 6 4 10 8 6 9 4 3 1 4 4 5 2 2 4 9 8 7 4 8 1 1 7 3 1 10 8 3 4 10 4 10 7 4 9 10 10 9 8 10 1 8 9 7 4 10 8 1 7 1 2 9 1 10 5 9 7 5 3 4 8 3 6 6 6 10 3 6 10 6 4 3 9 2 9 10 3 4 8 5 4 5 1 6 8 4 2 7 7 8 4 5 10 6 4 3 4 6 10 5 7 6 8 5 9 5 6 2 9 8 7 4 6 6 4 10 1 5 6 6 3 10 7 5 1 1 4 4 9 10 4 1 8 2 9 5 1 4 2 9 10 8 3 1 2 9 10 2 6 5 10 8 10 4 8 3 4 1 1 10 2 10 2 10 5 3 1 1 7 1 10 5 2 1 9 9 8 5 1 7 3 7 7 9 7 7 10 9 4 8 9 10 10 3 5 4 1 1 6 4 1 5 5 1 3 1 3 10 9 4 10 9 3 2 4 9 6 3 1 9 3 4 2 2 7 5 7 8 3 5 4 6 5 10 6 3 1 4 6 2 3 1 3 6 10 3 9 7 5 7 8 3 9 3 4 5 8 8 7 4 5 9 10 9 4 8 9 4 8 6 8 2 8 3 8 3 8 8 8 1 8 10 8 10 10 10 4 5 7 8 2 1 9 9 2 9 2 4 8 7 4 7 8 6 8 7 4 1 3 9 6 1 8 8 9 7 5 8 1 4 8 7 9 6 4 2 5 3 6 9 5 2 5 9 1 7 8 10 2 3 1 1 3 6 4 6 10 4 1 1 10 9 9 8 8 9 8 1 5 9 3 6 1 1 10 8 4 8 1 7 4 4 9 1 10 2 10 8 5 7 6 3 8 7 8 9 
48 76 88 97 96 41 55 67 99 83 45 41 26 15 9 40 53 38 43 42 35 32 4 15 27 83 45 62 99 38 47 32 56 84 5 49 29 46 60 7 12 17 86 60 18 83 19 35 72 44 10 61 94 36 36 36 44 41 50 65 69 70 73 93 38 27 90 64 79 73 74 80 40 77 39 98 100 5 28 99 51 96 12 60 56 62 81 19 67 72 3 70 78 82 25 76 95 86 13 60 7 62 81 93 99 53 83 53 80 25 17 52 83 69 61 19 17 4 41 88 8 3 90 56 36 70 92 47 49 78 92 31 19 84 77 75 6 60 10 62 22 63 16 24 11 65 47 4 69 93 97 81 56 94 25 13 57 90 40 95 91 19 63 48 33 21 44 39 37 21 24 86 14 74 63 41 82 55 17 15 80 99 71 6 77 56 75 61 17 39 47 76 86 44 6 38 21 17 16 57 70 80 56 47 19 39 18 21 49 99 52 49 97 62 51 35 9 64 40 29 53 93 75 47 30 22 50 98 36 60 69 17 87 62 53 25 34 79 92 38 25 2 68 80 36 36 26 19 91 56 4 39 30 73 95 85 48 8 83 98 76 100 48 91 62 94 66 87 30 55 66 93 96 54 82 16 30 43 92 97 95 33 23 98 56 16 21 91 46 78 29 79 96 2 22 48 16 7 66 67 64 67 5 65 11 31 94 15 61 59 28 71 29 16 15 88 36 81 6 74 96 51 75 37 97 72 57 34 26 26 34 12 79 58 63 38 27 28 29 42 18 41 40 64 43 81 78 47 76 72 90 71 10 2 51 4 48 96 99 35 31 17 4 82 38 13 85 23 10 35 30 59 73 67 42 44 85 66 16 85 77 26 3 40 50 63 55 8 84 46 26 52 29 41 76 27 75 69 64 15 75 96 94 2 50 10 29 56 50 26 92 54 68 46 23 49 70 69 43 98 10 97 68 52 80 87 79 14 3 88 90 94 82 40 34 46 90 47 14 57 58 65 98 83 95 44 30 62 64 64 73 65 75 51 86 31 97 92 41 88 98 41 6 59 37 80 24 55 40 74 14 87 32 92 98 
10
5501
666
8027
3574
8673
8925
4107
4980
6260
6751
