715
1 6 4 3 3 1 3 7 3 10 6 4 2 9 7 8 2 2 9 8 5 5 2 10 10 7 10 2 5 8 6 1 4 3 10 2 6 10 4 8 3 7 5 5 7 2 8 5 2 5 5 7 9 5 6 8 2 3 1 4 3 2 10 7 10 3 7 4 7 3 8 10 9 8 1 4 4 9 4 5 5 3 3 9 9 1 5 8 1 9 6 9 9 6 8 9 3 6 9 1 5 8 8 1 2 4 9 1 7 5 1 6 2 5 6 1 2 6 9 9 3 7 3 7 8 9 5 1 9 7 7 4 4 5 2 6 3 5 7 3 3 2 7 7 1 4 2 2 8 9 9 6 6 7 9 5 9 8 2 4 1 3 8 4 3 3 4 10 5 10 5 4 9 10 1 2 8 10 1 5 1 5 3 4 2 1 4 9 4 10 2 3 4 3 4 10 5 9 9 10 6 8 9 4 9 8 1 5 10 1 9 10 2 9 9 8 8 6 4 7 2 4 4 9 5 6 5 3 4 4 1 7 10 5 7 6 8 5 5 3 8 6 8 8 4 1 7 6 10 3 9 7 6 10 1 8 10 1 6 6 2 6 7 6 7 3 7 8 3 5 4 1 6 7 2 10 9 7 1 6 5 8 2 5 1 8 7 5 2 3 2 5 2 4 9 6 1 4 8 3 3 3 4 10 9 8 10 2 8 9 3 2 6 1 6 7 10 10 6 10 3 5 10 4 5 3 7 4 2 8 7 9 5 10 3 7 8 1 6 5 4 4 10 1 5 6 6 10 7 8 5 8 6 8 8 3 10 10 5 8 4 3 3 8 7 9 3 9 1 8 8 1 10 1 1 9 5 2 3 8 10 1 2 4 3 9 1 6 1 7 4 5 9 3 6 2 1 10 4 6 8 7 5 8 8 1 3 7 9 5 4 4 9 3 9 4 10 10 3 9 4 3 1 3 5 9 3 6 3 8 1 9 10 9 9 3 8 3 9 4 7 8 6 1 5 10 5 5 8 1 8 5 1 9 7 7 1 4 9 9 2 5 1 7 5 8 5 1 1 4 6 3 5 6 3 7 4 10 10 3 2 5 5 9 5 9 10 1 6 4 7 9 9 6 5 10 6 6 3 3 7 7 1 6 2 5 6 2 1 3 6 3 4 9 4 1 10 6 10 8 2 10 2 9 9 6 5 7 6 8 1 4 5 1 2 9 10 3 4 1 5 3 6 1 3 2 9 8 8 8 2 2 7 1 1 4 3 9 3 4 5 6 9 4 7 4 3 2 2 5 9 6 5 2 8 3 8 3 4 5 2 6 1 8 6 7 10 7 2 1 4 3 6 7 9 9 1 8 9 2 2 1 8 7 2 1 7 4 3 10 2 3 9 8 4 8 1 4 1 7 6 2 2 3 9 10 3 1 7 10 8 9 9 1 7 7 10 7 4 6 2 8 7 5 5 8 10 6 2 3 5 7 7 10 7 2 8 5 3 8 1 10 9 4 4 8 2 4 2 2 8 7 7 10 7 10 9 3 2 2 1 10 4 2 5 8 4 4 9 9 7 8 3 8 10 1 6 5 1 3 9 4 6 1 9 10 9 1 3 8 8 5 8 7 5 
75 87 56 38 69 30 36 83 14 83 67 49 89 92 62 13 85 31 54 69 59 21 66 72 12 30 8 67 82 36 28 48 25 85 31 97 87 39 91 5 52 2 74 32 44 6 40 57 69 43 96 86 52 71 77 25 12 77 43 59 70 70 28 17 34 15 77 87 52 35 78 11 92 19 22 10 14 34 39 42 64 55 77 90 68 46 78 50 76 57 36 1 73 58 2 38 51 57 32 83 36 49 81 82 90 32 97 35 50 30 48 82 25 44 61 18 59 62 81 47 62 71 62 24 37 73 22 35 68 36 77 55 44 44 98 76 44 52 59 20 67 91 28 11 100 32 90 17 2 9 94 27 11 100 23 81 13 72 23 81 67 14 91 13 99 12 66 3 52 59 34 61 70 69 45 78 65 65 92 16 14 32 42 95 25 90 14 79 82 29 8 38 75 18 15 21 63 29 4 81 43 92 33 55 36 56 15 91 14 75 44 87 62 66 89 24 35 25 47 9 78 31 98 10 6 24 84 68 26 7 15 78 92 70 29 28 68 61 55 39 77 55 74 59 85 80 35 25 53 30 64 91 79 28 69 7 82 98 82 23 47 69 24 61 84 71 77 17 100 83 33 40 35 29 39 5 94 12 34 55 82 93 15 43 72 19 57 53 48 86 82 56 26 27 70 61 72 6 17 76 87 66 88 2 60 46 73 63 91 33 5 37 22 69 96 94 5 25 99 50 23 91 100 51 25 3 4 85 82 88 37 53 62 83 100 71 94 60 32 27 6 2 30 74 83 67 10 24 36 10 57 54 52 55 76 58 68 45 16 51 72 12 49 80 32 35 22 13 34 75 71 25 42 41 62 96 7 53 67 21 16 72 98 80 83 29 100 71 82 98 69 35 75 41 68 14 31 39 79 15 91 50 86 15 78 86 82 52 16 39 10 40 80 25 75 29 83 80 31 76 41 21 61 33 60 11 97 78 20 21 2 52 12 28 97 52 19 24 79 79 73 69 15 60 85 9 99 29 72 19 77 22 93 85 21 70 65 70 29 48 25 76 10 4 1 86 97 8 10 42 89 40 67 6 95 60 82 96 64 48 30 31 89 1 96 40 99 9 96 27 83 32 15 41 5 52 76 6 30 91 84 52 88 22 24 18 66 63 84 3 94 79 15 6 11 42 8 74 45 72 100 7 10 92 50 33 44 71 64 39 83 93 18 27 46 83 45 86 92 62 49 73 63 99 57 23 34 29 18 29 19 58 55 67 59 87 63 33 46 16 54 5 11 73 87 16 91 89 22 20 20 43 59 42 36 53 90 37 18 54 55 67 42 90 90 95 51 35 28 93 7 22 8 28 16 92 85 80 57 11 73 36 81 80 87 6 33 72 4 60 71 24 82 16 80 88 94 37 42 78 20 80 85 39 15 13 39 20 89 73 49 79 94 86 22 53 74 88 91 45 27 12 54 16 99 17 54 14 77 67 27 72 72 73 42 46 11 15 87 34 55 43 14 66 27 66 83 97 17 88 78 25 5 100 78 89 40 32 54 2 78 23 31 53 87 22 95 75 91 11 83 44 97 15 3 60 81 28 37 22 80 22 30 46 49 27 5 74 81 23 1 17 75 59 8 
10
1388
6821
6003
4608
5579
7992
574
7852
760
7170
