DPOut,DPTime,GAOut,GATime,GA Total Time,isSame,OutDiff,TimeDiffBest,TimeDiffTotal,N,Kp,N*Kp
2006,52343900,1673.0,94933500,466554400,false,333.0,-42589600,-414210500,553,8951,4949903
1198,12206600,935.0,49284800,251485800,false,263.0,-37078200,-239279200,553,3159,1746927
1847,35155100,1525.0,32353300,248785700,false,322.0,2801800,-213630600,553,7539,4169067
990,7332600,756.0,51374800,234719800,false,234.0,-44042200,-227387200,553,2116,1170148
904,5989200,698.0,44507900,210263900,false,206.0,-38518700,-204274700,553,1743,963879
2064,34912500,1774.0,27864300,252685900,false,290.0,7048200,-217773400,553,9491,5248523
1905,25471700,1599.0,29400600,244477800,false,306.0,-3928900,-219006100,553,8042,4447226
1013,7694800,792.0,44567100,212823900,false,221.0,-36872300,-205129100,553,2222,1228766
483,1897500,417.0,49323200,198697300,false,66.0,-47425700,-196799800,553,487,269311
1817,24342700,1502.0,30930700,241702600,false,315.0,-6588000,-217359900,553,7288,4030264
