DPOut,DPTime,GAOut,GATime,GA Total Time,isSame,OutDiff,TimeDiffBest,TimeDiffTotal,N,Kp,N*Kp
1243,33757000,1092.0,69512900,322545200,false,151.0,-35755900,-288788200,384,5051,1939584
262,1087800,224.0,24525400,110813400,false,38.0,-23437600,-109725600,384,273,104832
1258,22194700,1101.0,20182600,131224500,false,157.0,2012100,-109029800,384,5179,1988736
1721,26040200,1597.0,9225400,132259300,false,124.0,16814800,-106219100,384,9783,3756672
1257,10025200,1059.0,13043900,120573500,false,198.0,-3018700,-110548300,384,5168,1984512
1473,13123200,1306.0,11521100,121942800,false,167.0,1602100,-108819600,384,7103,2727552
1597,21675800,1455.0,9426000,122783400,false,142.0,12249800,-101107600,384,8388,3220992
916,5854100,767.0,16905800,108653000,false,149.0,-11051700,-102798900,384,2707,1039488
1594,18221300,1412.0,9432200,122878100,false,182.0,8789100,-104656800,384,8354,3207936
1177,9779900,988.0,14710900,114665900,false,189.0,-4931000,-104886000,384,4530,1739520
