DPOut,DPTime,GAOut,GATime,GA Total Time,isSame,OutDiff,TimeDiffBest,TimeDiffTotal,N,Kp,N*Kp
812,24610500,781.0,19435400,164225800,false,31.0,5175100,-139615300,157,5648,886736
824,8925200,790.0,3226200,31767300,false,34.0,5699000,-22842100,157,5888,924416
813,15217500,784.0,3352800,31353300,false,29.0,11864700,-16135800,157,5658,888306
877,16319500,847.0,3279700,31538100,false,30.0,13039800,-15218600,157,9180,1441260
825,5232500,783.0,2432400,33024800,false,42.0,2800100,-27792300,157,5909,927713
614,2422000,575.0,1890000,24388700,false,39.0,532000,-21966700,157,3142,493294
206,343400,177.0,2916000,21358500,false,29.0,-2572600,-21015100,157,362,56834
681,3770000,654.0,1371000,24240100,false,27.0,2399000,-20470100,157,3871,607747
862,6359800,838.0,2558300,25571700,false,24.0,3801500,-19211900,157,6993,1097901
876,7327100,862.0,1212300,24512000,false,14.0,6114800,-17184900,157,7962,1250034
