DPOut,DPTime,GAOut,GATime,GA Total Time,isSame,OutDiff,TimeDiffBest,TimeDiffTotal,N,Kp,N*Kp
1768,46896300,1524.0,88600700,427606800,false,244.0,-41704400,-380710500,518,7729,4003622
1604,21291800,1343.0,41720700,235267200,false,261.0,-20428900,-213975400,518,6317,3272206
1993,43252000,1755.0,28616200,238955700,false,238.0,14635800,-195703700,518,9871,5113178
944,6897400,768.0,37573900,192093100,false,176.0,-30676500,-185195700,518,2136,1106448
1740,23442300,1493.0,26810000,234265200,false,247.0,-3367700,-210822900,518,7476,3872568
699,3867400,523.0,40120500,194302800,false,176.0,-36253100,-190435400,518,1169,605542
1473,15671200,1205.0,29036500,203680100,false,268.0,-13365300,-188008900,518,5304,2747472
644,3217400,494.0,39964100,174392500,false,150.0,-36746700,-171175100,518,990,512820
1811,26867200,1539.0,25086200,208691700,false,272.0,1781000,-181824500,518,8119,4205642
1755,23719700,1497.0,25014800,211469600,false,258.0,-1295100,-187749900,518,7607,3940426
