DPOut,DPTime,GAOut,GATime,GA Total Time,isSame,OutDiff,TimeDiffBest,TimeDiffTotal,N,Kp,N*Kp
1574,41627900,1305.0,90809500,408687000,false,269.0,-49181600,-367059100,496,6626,3286496
523,2608000,436.0,51487000,189892500,false,87.0,-48879000,-187284500,496,707,350672
1881,34436300,1669.0,25639200,226628800,false,212.0,8797100,-192192500,496,9458,4691168
1577,23814400,1342.0,24047200,198340300,false,235.0,-232800,-174525900,496,6650,3298400
1634,19554100,1405.0,23378000,190705000,false,229.0,-3823900,-171150900,496,7139,3540944
1809,20059900,1620.0,20179200,206324400,false,189.0,-119300,-186264500,496,8751,4340496
1776,23986100,1526.0,21080100,201645700,false,250.0,2906000,-177659600,496,8438,4185248
1705,23550800,1489.0,21984800,197417100,false,216.0,1566000,-173866300,496,7778,3857888
1889,26956000,1672.0,19160400,208544600,false,217.0,7795600,-181588600,496,9539,4731344
1590,19152400,1382.0,23864900,196948700,false,208.0,-4712500,-177796300,496,6753,3349488
