DPOut,DPTime,GAOut,GATime,GA Total Time,isSame,OutDiff,TimeDiffBest,TimeDiffTotal,N,Kp,N*Kp
743,26252000,560.0,231437600,737930400,false,183.0,-205185600,-711678400,806,1084,873704
1511,20193400,1152.0,169626700,603931500,false,359.0,-149433300,-583738100,806,4054,3267524
1058,15605900,776.0,118476400,464693600,false,282.0,-102870500,-449087700,806,2077,1674062
2352,41760300,1877.0,88608700,522657300,false,475.0,-46848400,-480897000,806,9385,7564310
587,2739000,461.0,127391600,447093500,false,126.0,-124652600,-444354500,806,682,549692
1164,8919000,881.0,114985400,471219900,false,283.0,-106066400,-462300900,806,2465,1986790
738,4935400,576.0,127227900,452484700,false,162.0,-122292500,-447549300,806,1071,863226
1903,29186900,1423.0,101252100,496261600,false,480.0,-72065200,-467074700,806,6299,5076994
1949,30619900,1426.0,100692800,512177300,false,523.0,-70072900,-481557400,806,6590,5311540
654,3986300,502.0,127635600,457696400,false,152.0,-123649300,-453710100,806,848,683488
