DPOut,DPTime,GAOut,GATime,GA Total Time,isSame,OutDiff,TimeDiffBest,TimeDiffTotal,N,Kp,N*Kp
971,28378500,810.0,88130300,314027000,false,161.0,-59751800,-285648500,427,3302,1409954
808,6687900,703.0,27040300,154394500,false,105.0,-20352400,-147706600,427,2348,1002596
360,1477100,320.0,31912600,133651000,false,40.0,-30435500,-132173900,427,500,213500
1366,19267700,1189.0,23945500,155662000,false,177.0,-4677800,-136394300,427,6181,2639287
1209,18205200,1030.0,18842000,142723200,false,179.0,-636800,-124518000,427,4934,2106818
1514,15218400,1325.0,14153200,146897700,false,189.0,1065200,-131679300,427,7498,3201646
1443,16471000,1265.0,16390800,143069500,false,178.0,80200,-126598500,427,6849,2924523
1568,19204100,1416.0,16536300,164218800,false,152.0,2667800,-145014700,427,8002,3416854
824,5965800,699.0,22373100,135194900,false,125.0,-16407300,-129229100,427,2433,1038891
736,4866100,587.0,22911400,125960100,false,149.0,-18045300,-121094000,427,1974,842898
