DPOut,DPTime,GAOut,GATime,GA Total Time,isSame,OutDiff,TimeDiffBest,TimeDiffTotal,N,Kp,N*Kp
1364,37249600,1131.0,91247800,366432400,false,233.0,-53998200,-329182800,475,5501,2612975
426,2353700,360.0,48797800,174758200,false,66.0,-46444100,-172404500,475,666,316350
1672,27355400,1445.0,21214100,203527200,false,227.0,6141300,-176171800,475,8027,3812825
1074,18519200,891.0,38433100,177291400,false,183.0,-19913900,-158772200,475,3574,1697650
1740,19648300,1510.0,19640800,186455800,false,230.0,7500,-166807500,475,8673,4119675
1766,20385000,1571.0,25821100,207990700,false,195.0,-5436100,-187605700,475,8925,4239375
1161,10956000,979.0,25628300,166708200,false,182.0,-14672300,-155752200,475,4107,1950825
1290,13248600,1076.0,24458000,175516300,false,214.0,-11209400,-162267700,475,4980,2365500
1467,17218700,1253.0,22565300,180644900,false,214.0,-5346600,-163426200,475,6260,2973500
1530,21674600,1310.0,20834000,174427700,false,220.0,840600,-152753100,475,6751,3206725
