DPOut,DPTime,GAOut,GATime,GA Total Time,isSame,OutDiff,TimeDiffBest,TimeDiffTotal,N,Kp,N*Kp
851,27223800,673.0,172027900,655541700,false,178.0,-144804100,-628317900,715,1388,992420
1909,29903900,1489.0,82302000,412943900,false,420.0,-52398100,-383040000,715,6821,4877015
1795,25531700,1368.0,70618200,390561500,false,427.0,-45086500,-365029800,715,6003,4292145
1576,23383400,1178.0,74805400,368050900,false,398.0,-51422000,-344667500,715,4608,3294720
1732,17875700,1322.0,74249000,365646300,false,410.0,-56373300,-347770600,715,5579,3988985
2063,25650200,1625.0,64026400,387014300,false,438.0,-38376200,-361364100,715,7992,5714280
543,2330400,445.0,93119400,338637900,false,98.0,-90789000,-336307500,715,574,410410
2046,32759200,1627.0,64293200,391877200,false,419.0,-31534000,-359118000,715,7852,5614180
627,3255000,526.0,93531200,336901800,false,101.0,-90276200,-333646800,715,760,543400
1957,29843100,1537.0,66221400,389629400,false,420.0,-36378300,-359786300,715,7170,5126550
